Chapter 6 Data Manipulation wity tidyverse | R for Data Journalism
…
selected_df %>% count(time)

## # A tibble: 26 × 2
##    time      n
##    <chr> <int>
##  1 00~02   272
##  2 02~04   214
##  3 03~05     8
##  4 04~06   156
##  5 05~07    23
##  6 06~08   191
##  7 08~10   305
##  8 09~11     6
##  9 10~12   338
## 10 11~03     1
## # … with 16 more rows

selected_df %>% arrange(time)

## # A tibble: 3,347 × 9
##       id cat         date time  location                 year month area  county
##    <dbl> <chr>      <dbl> <chr> <chr>                   <dbl> <dbl> <chr> <chr> 
##  1     2 住宅竊盜 1040101 00~02 臺北市文山區萬美里萬寧…   104     1 文山… 臺北市
##  2     3 住宅竊盜 1040101 00~02 臺北市信義區富台里忠孝…   104     1 信義… 臺北市
##  3     6 住宅竊盜 1040102 00~02 臺北市士林區天福里1鄰…    104     1 士林… 臺北市
##  4    12 住宅竊盜 1040105 00~02 臺北市中山區南京東路3…    104     1 中山… 臺北市
##  5    33 住宅竊盜 1040115 00~02 臺北市松山區饒河街181~…   104     1 松山… 臺北市
##  6    74 住宅竊盜 1040131 00~02 臺北市南港區重陽路57巷…   104     1 南港… 臺北市
##  7    75 住宅竊盜 1040201 00~02 臺北市北投區中心里中和…   104     2 北投… 臺北市
##  8    92 住宅竊盜 1040210 00~02 臺北市北投區大同路200…    104     2 北投… 臺北市
##  9    95 住宅竊盜 1040212 00~02 臺北市萬華區萬大路493…    104     2 萬華… 臺北市
## 10   106 住宅竊盜 1040216 00~02 臺北市信義區吳興街269…    104     2 信義… 臺北市
## # … with 3,337 more rows
…
