Chapter 2 Data Analysis with R | R Basic: Vector
…
# View(res)

2.2.11.3 (3) by dplyr::count()

這邊多介紹一個用dplyr套件的count()函式來做交叉分析的方法（未來會常用這個方法，因為dplyr是tidyverse系列套件的核心套件。dplyr的函式第一個參數永遠是該data.frame， 例如count()；後面time與region則是這個data.frame中的兩個變項。不像tapply()或table()的結果一樣，欄與列分別為time與region，count()出來的結果會有兩個變項分別是指定要計數的time與region ，且會新增一個變項n，代表這組數據（time x region）共有幾個。這種表達型態通常稱為long-table（長表）、而tapply()或table() 的結果通常稱為wide-table（寬表）為典型的交叉分析表。

目前大部分的類別資料分析還是會採用交叉分析表的型態，但未來我們要用tidyverse系列套件做大量的數據彙整或視覺化時，都會盡可能想辦法轉為Long-table型態，讓每一欄剛好就是一個變項。只要是tidyverse系列套件所計算出來的資料型態幾乎都是類似data.frame的型態，例如觀察count的結果便是"tbl_df"     "tbl"        "data.frame"。

# counting by dplyr::count()
library(dplyr)
(res_count <- count(df, time, region)) 

## # A tibble: 146 × 3
##    time  region     n
##    <chr> <chr>  <int>
##  1 00~02 北投      24
##  2 00~02 大安      24
##  3 00~02 大同      15
##  4 00~02 南港      19
##  5 00~02 內湖      20
##  6 00~02 士林      28
##  7 00~02 松山       4
##  8 00~02 萬華      17
##  9 00~02 文山      17
## 10 00~02 信義      27
## # … with 136 more rows
…
# ??dplyr::count

寬表格亦可用tidyr的gather()函式轉回長表格型態：

(long_table <- tidyr::gather(res_count_spread, region, n, -time))

## # A tibble: 168 × 3
##    time  region     n
##    <chr> <chr>  <dbl>
##  1 00~02 北投      24
##  2 02~04 北投      17
##  3 04~06 北投      17
##  4 06~08 北投      24
##  5 08~10 北投      22
##  6 10~12 北投      35
##  7 11~03 北投       0
##  8 12~14 北投      34
##  9 14~16 北投      32
## 10 16~18 北投      33
## # … with 158 more rows
…
