…
```{.output}
## [1] "county"          "town"            "agree"           "disagree"       
## [5] "legalVote"       "illegalVote"     "vote"            "legalPopulation"
## [9] "site_id"
```

合併資料測試，注意，由於兩邊都有`legalPopulation`，所以`town_stat`中的`legalPopulation`增生為`legalPopulation.x`，而`ref10`中的`legalPopulation`則重新命名為`legalPopulation.y`。


```r
town_stat %>% left_join(ref10, by = "site_id")
```

```{.output}
## # A tibble: 368 × 13
##    site_id     legalPopulation.x elderSum marriedSum womenSum county town  agree
##    <chr>                   <dbl>    <dbl>      <dbl>    <dbl> <chr>  <chr> <dbl>
##  1 南投縣中寮…             12791     3272       9553     5824 南投縣 中寮…  5748
##  2 南投縣仁愛…             12172     1713       9078     5899 南投縣 仁愛…  5702
##  3 南投縣信義…             12860     1847       9050     5938 南投縣 信義…  6891
##  4 南投縣南投…             81874    15855      57042    41343 南投縣 南投… 37547
##  5 南投縣名間…             32388     7106      23375    15304 南投縣 名間… 14533
##  6 南投縣國姓…             16196     3744      11826     7434 南投縣 國姓…  7089
##  7 南投縣埔里…             66699    13411      46316    33718 南投縣 埔里… 29571
##  8 南投縣水里…             15023     3644      10850     7106 南投縣 水里…  6392
##  9 南投縣竹山…             45629    10154      33201    22244 南投縣 竹山… 19254
## 10 南投縣草屯…             80426    15141      56384    40008 南投縣 草屯… 35215
## # ℹ 358 more rows
## # ℹ 5 more variables: disagree <dbl>, legalVote <dbl>, illegalVote <dbl>,
## #   vote <dbl>, legalPopulation.y <dbl>
```
…
