…
## The Case: Misinformation Perception

這個範例涵括了在做問卷分析時常用的處理步驟。最核心的步驟是將文字陳述的類別資料轉換為便於後續運算的`factor`或數值資料。如果類別數量過多的時候，在這個過程會順便進行重新分組。例如依照年齡組把填答者分為老年、中壯年、青少年、兒童四組。


```r
raw <- read_rds("data/tfc_survey.rds")
raw
```

```{.output}
## # A tibble: 1,216 × 6
##    Q7    Q8     QAParty      QASide       QA3   QA4               
##    <chr> <chr>  <chr>        <chr>        <chr> <chr>             
##  1 會    絕對會 民主進步黨   非常接近泛綠 25-29 研究所及以上      
##  2 會    絕對會 沒有政黨偏好 接近泛藍     35-39 研究所及以上      
##  3 不會  絕對會 沒有政黨偏好 接近泛綠     35-39 大專（專科與大學）
##  4 會    會     台灣民眾黨   接近泛綠     20-24 大專（專科與大學）
##  5 不會  不會   民主進步黨   非常接近泛綠 45-49 研究所及以上      
##  6 會    絕對會 沒有政黨偏好 非常接近泛藍 25-29 大專（專科與大學）
##  7 不會  絕對會 民主進步黨   接近泛綠     30-34 大專（專科與大學）
##  8 會    絕對會 台灣民眾黨   接近泛綠     20-24 大專（專科與大學）
##  9 會    絕對會 沒有政黨偏好 接近泛藍     20-24 大專（專科與大學）
## 10 會    會     民主進步黨   接近泛綠     55-59 高中、高職        
## # … with 1,206 more rows
```
…
