Chapter 8 TW Data Visualization | R for Data Journalism
…
library(readxl)
raw <- read_excel("data/tw_salary109.xlsx", sheet=1, trim_ws = T)
raw

## # A tibble: 29 × 5
##    Category        Q1 Median    Q3  Mean
##    <chr>        <dbl>  <dbl> <dbl> <dbl>
##  1 　男          39     53.2  82.3  70.7
##  2 　女          35.1   46.8  67.6  58.6
##  3 　未滿25歲    28.1   35.8  45.1  37.7
##  4 　25-29歲     36.6   47.8  61.7  53  
##  5 　30-39歲     39.2   53.3  77    64.1
##  6 　40-49歲     39.9   56.9  91.8  74.8
##  7 　50-64歲     37.8   53.3  88.4  75.5
##  8 　65歲以上    30.6   40.9  63.1  62.6
##  9 　國中及以下  32.7   40.5  52    45.4
## 10 　高中（職）  34.5   44.7  59.8  51.9
## # … with 19 more rows
…
