…
<img src="V11_Time_and_Trends_files/figure-html/unnamed-chunk-4-1.png" width="100%" style="display: block; margin: auto;" />

### Polls_2008

Second Example comes from [Rafael's online book](http://rafalab.dfci.harvard.edu/dsbook/smoothing.html)


```r
library(dslabs)
span <- 7 
polls_2008
```

```{.output}
## # A tibble: 131 × 2
##      day margin
##    <dbl>  <dbl>
##  1  -155 0.0200
##  2  -153 0.0300
##  3  -152 0.065 
##  4  -151 0.06  
##  5  -150 0.07  
##  6  -149 0.05  
##  7  -147 0.035 
##  8  -146 0.06  
##  9  -145 0.0267
## 10  -144 0.0300
## # … with 121 more rows
```
…
